Introduction to data analysis and visualization with R - Data visualization
…
In this chapter, you’ll delve into the fundamental aspect of data visualization using the ggplot2 package. Specifically, you’ll explore how to generate scatterplots, such as the one depicted here, which facilitate comparison between two variables along x- and y-axes. Visualization and data manipulation frequently go hand in hand, so you’ll discover how the dplyr and ggplot2 packages synergize to craft insightful graphs.

Variable Assignment

Variable Assignment

Throughout this chapter, your focus will primarily be on visualizing subsets of the gapminder dataset. For instance, you’ll frequently visualize data from specific years, like 2007. When you’re working with such subsets, it’s beneficial to preserve the filtered data by storing it as a new data frame. To accomplish this, you employ the assignment operator, which resembles an arrow pointing to the left. In this operation, you filter the gapminder dataset for observations from the year 2007 and save it into a dataset named gapminder_2007.

gapminder_2007 = gapminder %>% 
                  filter(year == 2007)
gapminder_2007  

Output

# A tibble: 142 × 6
   country     continent  year lifeExp       pop gdpPercap
   <fct>       <fct>     <int>   <dbl>     <int>     <dbl>
 1 Afghanistan Asia       2007    43.8  31889923      975.
 2 Albania     Europe     2007    76.4   3600523     5937.
 3 Algeria     Africa     2007    72.3  33333216     6223.
 4 Angola      Africa     2007    42.7  12420476     4797.
 5 Argentina   Americas   2007    75.3  40301927    12779.
 6 Australia   Oceania    2007    81.2  20434176    34435.
 7 Austria     Europe     2007    79.8   8199783    36126.
 8 Bahrain     Asia       2007    75.6    708573    29796.
 9 Bangladesh  Asia       2007    64.1 150448339     1391.
10 Belgium     Europe     2007    79.4  10392226    33693.
# ℹ 132 more rows
…
Additional aesthetics

You’ve gained proficiency in creating scatter plots to compare two variables within your data using two visual aesthetics: GDP per capita on the x-axis and life expectancy on the y-axis. However, the gapminder dataset comprises more than just these two variables. For instance, it also includes continent and population. You may wish to explore relationships among all these variables within the same plot.

# A tibble: 1,704 × 6
   country     continent  year lifeExp      pop gdpPercap
   <fct>       <fct>     <int>   <dbl>    <int>     <dbl>
 1 Afghanistan Asia       1952    28.8  8425333      779.
 2 Afghanistan Asia       1957    30.3  9240934      821.
 3 Afghanistan Asia       1962    32.0 10267083      853.
 4 Afghanistan Asia       1967    34.0 11537966      836.
 5 Afghanistan Asia       1972    36.1 13079460      740.
 6 Afghanistan Asia       1977    38.4 14880372      786.
 7 Afghanistan Asia       1982    39.9 12881816      978.
 8 Afghanistan Asia       1987    40.8 13867957      852.
 9 Afghanistan Asia       1992    41.7 16317921      649.
10 Afghanistan Asia       1997    41.8 22227415      635.
# ℹ 1,694 more rows
…
