Introduction to data analysis and visualization with R - Grouping and summarizing
…
interested in the average life expectancy and the total population in 2007 within each continent. You can find this by first filtering for the year 2007, grouping by continent (instead of year), and then performing your summary. This results in a table with one row for each continent, with columns for mean life expectancy and total population. We can see that Europe and Oceania have the highest life expectancy, and that Asia and Africa are lower. Now that you’ve calculated these statistics for each continent in 2007, you might be interested in how they changed for each continent over time.

Summarizing by continent and year

Summarizing by continent and year

gapminder %>%
  group_by(year, continent) %>%
  summarize(totalPop = sum(pop),
  meanLifeExp = mean(lifeExp))

`summarise()` has grouped output by 'year'. You can override using the
`.groups` argument.

# A tibble: 60 × 4
# Groups:   year [12]
    year continent   totalPop meanLifeExp
   <int> <fct>          <dbl>       <dbl>
 1  1952 Africa     237640501        39.1
 2  1952 Americas   345152446        53.3
 3  1952 Asia      1395357351        46.3
 4  1952 Europe     418120846        64.4
 5  1952 Oceania     10686006        69.3
 6  1957 Africa     264837738        41.3
 7  1957 Americas   386953916        56.0
 8  1957 Asia      1562780599        49.3
 9  1957 Europe     437890351        66.7
10  1957 Oceania     11941976        70.3
# ℹ 50 more rows
…
Exercise: Summarizing by continent and year

Instead of grouping just by year, or just by continent, you’ll now group by both continent and year to summarize within each.

Instructions

Find the median life expectancy (lifeExp) and maximum GDP per capita (gdpPercap) within each combination of continent and year, saving them into medianLifeExp and maxGdpPercap, respectively.

`summarise()` has grouped output by 'year'. You can override using the
`.groups` argument.

# A tibble: 60 × 4
# Groups:   year [12]
    year continent medianLifeExp maxGdpPercap
   <int> <fct>             <dbl>        <dbl>
 1  1952 Africa             38.8        4725.
 2  1952 Americas           54.7       13990.
 3  1952 Asia               44.9      108382.
 4  1952 Europe             65.9       14734.
 5  1952 Oceania            69.3       10557.
 6  1957 Africa             40.6        5487.
 7  1957 Americas           56.1       14847.
 8  1957 Asia               48.3      113523.
 9  1957 Europe             67.6       17909.
10  1957 Oceania            70.3       12247.
# ℹ 50 more rows

library(gapminder)
library(dplyr)

# Find median life expectancy and maximum GDP per capita in each continent/year combination
gapminder%>%
group_by(year,continent)%>%
summarize(medianLifeExp = median(lifeExp), maxGdpPercap = max(gdpPercap))

`summarise()` has grouped output by 'year'. You can override using the
`.groups` argument.

# A tibble: 60 × 4
# Groups:   year [12]
    year continent medianLifeExp maxGdpPercap
   <int> <fct>             <dbl>        <dbl>
 1  1952 Africa             38.8        4725.
 2  1952 Americas           54.7       13990.
 3  1952 Asia               44.9      108382.
 4  1952 Europe             65.9       14734.
 5  1952 Oceania            69.3       10557.
 6  1957 Africa             40.6        5487.
 7  1957 Americas           56.1       14847.
 8  1957 Asia               48.3      113523.
 9  1957 Europe             67.6       17909.
10  1957 Oceania            70.3       12247.
# ℹ 50 more rows
…
Summarizing by year and continent

So far you’ve been graphing the by-year summarized data. But you have also learned to summarize after grouping by both year and continent, to see how the changes in population have occurred separately within each continent.

by_year_continent = gapminder %>%
  group_by(year, continent) %>%
  summarize(totalPop = sum(pop),
  meanLifeExp = mean(lifeExp))

`summarise()` has grouped output by 'year'. You can override using the
`.groups` argument.

by_year_continent 

# A tibble: 60 × 4
# Groups:   year [12]
    year continent   totalPop meanLifeExp
   <int> <fct>          <dbl>       <dbl>
 1  1952 Africa     237640501        39.1
 2  1952 Americas   345152446        53.3
 3  1952 Asia      1395357351        46.3
 4  1952 Europe     418120846        64.4
 5  1952 Oceania     10686006        69.3
 6  1957 Africa     264837738        41.3
 7  1957 Americas   386953916        56.0
 8  1957 Asia      1562780599        49.3
 9  1957 Europe     437890351        66.7
10  1957 Oceania     11941976        70.3
# ℹ 50 more rows
…
Exercise: Visualizing median GDP per capita per continent over time

In the last exercise you were able to see how the median life expectancy of countries changed over time. Now you’ll examine the median GDP per capita instead, and see how the trend differs among continents.

Instructions

Summarize the gapminder dataset by continent and year, finding the median GDP per capita (gdpPercap) within each and putting it into a column called medianGdpPercap.

Use the assignment operator = to save this summarized data as by_year_continent.

`summarise()` has grouped output by 'continent'. You can override using the
`.groups` argument.

# A tibble: 60 × 3
# Groups:   continent [5]
   continent  year medianGdpPercap
   <fct>     <int>           <dbl>
 1 Africa     1952            987.
 2 Africa     1957           1024.
 3 Africa     1962           1134.
 4 Africa     1967           1210.
 5 Africa     1972           1443.
 6 Africa     1977           1400.
 7 Africa     1982           1324.
 8 Africa     1987           1220.
 9 Africa     1992           1162.
10 Africa     1997           1180.
# ℹ 50 more rows
…
