Introduction to data analysis and visualization with R - Project: Dr. Semmelweis and the Importance of Handwashing
…
Rows: 98 Columns: 3
── Column specification ────────────────────────────────────────────────────────
Delimiter: ","
dbl  (2): births, deaths
date (1): date

ℹ Use `spec()` to retrieve the full column specification for this data.
ℹ Specify the column types or set `show_col_types = FALSE` to quiet this message.

# A tibble: 98 × 3
   date       births deaths
   <date>      <dbl>  <dbl>
 1 1841-01-01    254     37
 2 1841-02-01    239     18
 3 1841-03-01    277     12
 4 1841-04-01    255      4
 5 1841-05-01    255      2
 6 1841-06-01    200     10
 7 1841-07-01    190     16
 8 1841-08-01    222      3
 9 1841-09-01    213      4
10 1841-10-01    236     26
# ℹ 88 more rows
…
monthly = read_csv("datasets/monthly_deaths.csv")

Rows: 98 Columns: 3
── Column specification ────────────────────────────────────────────────────────
Delimiter: ","
dbl  (2): births, deaths
date (1): date

ℹ Use `spec()` to retrieve the full column specification for this data.
ℹ Specify the column types or set `show_col_types = FALSE` to quiet this message.

monthly

# A tibble: 98 × 3
   date       births deaths
   <date>      <dbl>  <dbl>
 1 1841-01-01    254     37
 2 1841-02-01    239     18
 3 1841-03-01    277     12
 4 1841-04-01    255      4
 5 1841-05-01    255      2
 6 1841-06-01    200     10
 7 1841-07-01    190     16
 8 1841-08-01    222      3
 9 1841-09-01    213      4
10 1841-10-01    236     26
# ℹ 88 more rows
…
   <dbl>  <dbl>  <dbl> <chr>                <dbl>
 1  1841   3036    237 clinic 1            0.0781
 2  1842   3287    518 clinic 1            0.158 
 3  1843   3060    274 clinic 1            0.0895
 4  1844   3157    260 clinic 1            0.0824
 5  1845   3492    241 clinic 1            0.0690
 6  1846   4010    459 clinic 1            0.114 
 7  1841   2442     86 clinic 2            0.0352
 8  1842   2659    202 clinic 2            0.0760
 9  1843   2739    164 clinic 2            0.0599
10  1844   2956     68 clinic 2            0.0230
11  1845   3241     66 clinic 2            0.0204
12  1846   3754    105 clinic 2            0.0280

# A tibble: 98 × 4
   date       births deaths proportion_deaths
   <date>      <dbl>  <dbl>             <dbl>
 1 1841-01-01    254     37           0.146  
 2 1841-02-01    239     18           0.0753 
 3 1841-03-01    277     12           0.0433 
 4 1841-04-01    255      4           0.0157 
 5 1841-05-01    255      2           0.00784
 6 1841-06-01    200     10           0.05   
 7 1841-07-01    190     16           0.0842 
 8 1841-08-01    222      3           0.0135 
 9 1841-09-01    213      4           0.0188 
10 1841-10-01    236     26           0.110  
# ℹ 88 more rows
…
