Introduction to data analysis and visualization with R - Types of visualizations
…
Exercise: Visualizing median GDP per capita by continent over time

In the last exercise you used a line plot to visualize the increase in median GDP per capita over time. Now you’ll examine the change within each continent.

Instructions

Use group_by() and summarize() to find the median GDP per capita within each year and continent, calling the output column medianGdpPercap. Use the assignment operator = to save it to a dataset called by_year_continent.

# Summarize the median gdpPercap by year & continent, save as by_year_continent
suppressMessages({by_year_continent = gapminder%>%
                    group_by(year,continent)%>%
                    summarize(medianGdpPercap = median(gdpPercap))})
by_year_continent

# A tibble: 60 × 3
# Groups:   year [12]
    year continent medianGdpPercap
   <int> <fct>               <dbl>
 1  1952 Africa               987.
 2  1952 Americas            3048.
 3  1952 Asia                1207.
 4  1952 Europe              5142.
 5  1952 Oceania            10298.
 6  1957 Africa              1024.
 7  1957 Americas            3781.
 8  1957 Asia                1548.
 9  1957 Europe              6067.
10  1957 Oceania            11599.
# ℹ 50 more rows
…
